MAPS
…
# 
# 
# counties %>% 
#   mutate(filled = subregion == "story") %>% 
#   ggplot(aes(x = long, y = lat)) + 
#   geom_polygon(aes(group = group, fill = filled), size = .1, colour = "white")

Q: Advanced: What county names are used most often?

Identify the counties:

counties %>% count(subregion) %>% arrange(desc(n)) # counts multiples

## # A tibble: 1,777 x 2
##    subregion      n
##    <chr>      <int>
##  1 washington  1121
##  2 jefferson    888
##  3 franklin     719
##  4 jackson      683
##  5 madison      642
##  6 lincoln      614
##  7 union        507
##  8 monroe       479
##  9 marion       467
## 10 grant        443
## #  with 1,767 more rows

counties %>% 
  distinct(region, subregion) %>%
  count(subregion) %>% 
  arrange(desc(n))

## # A tibble: 1,777 x 2
##    subregion      n
##    <chr>      <int>
##  1 washington    32
##  2 jefferson     26
##  3 franklin      25
##  4 jackson       24
##  5 lincoln       24
##  6 madison       20
##  7 clay          18
##  8 montgomery    18
##  9 union         18
## 10 marion        17
## #  with 1,767 more rows
…
