Reshaping data with tidyr
…
---
## Tidying the french fries data

```r
ff_long <- french_fries %>% 
  pivot_longer(cols = potato:painty, 
               names_to = "scale", 
               values_to = "score")
ff_long
```

```
## # A tibble: 3,480 x 6
##    time  treatment subject   rep scale   score
##    <fct> <fct>     <fct>   <dbl> <chr>   <dbl>
##  1 1     1         3           1 potato    2.9
##  2 1     1         3           1 buttery   0  
##  3 1     1         3           1 grassy    0  
##  4 1     1         3           1 rancid    0  
##  5 1     1         3           1 painty    5.5
##  6 1     1         3           2 potato   14  
##  7 1     1         3           2 buttery   0  
##  8 1     1         3           2 grassy    0  
##  9 1     1         3           2 rancid    1.1
## 10 1     1         3           2 painty    0  
## # … with 3,470 more rows
```
…
