Cleaning data: messy 3 & 4
…
Does `Movie` uniquely describe a movie?

```r
movies <- box %>% select(Movie, Distributor) %>% distinct()
```

Does that make a movie unique?

```r
movies %>% count(Movie) %>% arrange(desc(n))
```

```
## # A tibble: 4,144 x 2
##    Movie                    n
##    <chr>                <int>
##  1 Beauty and the Beast     2
##  2 Breathe                  2
##  3 Champion                 2
##  4 Concussion               2
##  5 Entertainment            2
##  6 Girlhood                 2
##  7 Gold                     2
##  8 Holy Hell                2
##  9 Iceman                   2
## 10 Leviathan                2
## # … with 4,134 more rows
```
…
---
## Looking into inconsistencies

```r
movies %>% group_by(Movie) %>% mutate(n = n()) %>% arrange(desc(n))
```

```
## # A tibble: 4,172 x 5
## # Groups:   Movie [4,144]
##    Movie                Distributor           firstDate  firstWeek     n
##    <chr>                <chr>                 <date>         <dbl> <int>
##  1 Beauty and the Beast Lopert Pictures Cor.… 2016-02-12         1     2
##  2 Beauty and the Beast Walt Disney           2017-03-17         1     2
##  3 Breathe              Bleecker Street       2017-10-13         1     2
##  4 Breathe              Film Movement         2015-09-11         1     2
##  5 Champion             ArtAffects            2017-05-26         2     2
##  6 Champion             Well Go USA           2018-05-11         1     2
##  7 Concussion           Radius                2013-10-04         1     2
##  8 Concussion           Sony Pictures         2015-12-25         1     2
##  9 Entertainment        B4U Movies            2014-08-08         1     2
## 10 Entertainment        Magnolia Pictures     2015-11-13         1     2
## # … with 4,162 more rows
```
…
