Joining data: Messy 4
…
The default, `by = NULL`, uses all variables that appear in both tables.

For example, the `flights` and `weather` tables have the common vaiables `year`, `month`, `day`, `hour`, and `origin`, but we do not need to define this when calling `left_join()`:

```r
flights %>% left_join(weather)
```

```
## Joining, by = c("year", "month", "day", "origin", "hour", "time_hour")
```

```
## # A tibble: 336,776 x 28
##     year month   day dep_time sched_dep_time dep_delay arr_time sched_arr_time
##    <int> <int> <int>    <int>          <int>     <dbl>    <int>          <int>
##  1  2013     1     1      517            515         2      830            819
##  2  2013     1     1      533            529         4      850            830
##  3  2013     1     1      542            540         2      923            850
##  4  2013     1     1      544            545        -1     1004           1022
##  5  2013     1     1      554            600        -6      812            837
##  6  2013     1     1      554            558        -4      740            728
##  7  2013     1     1      555            600        -5      913            854
##  8  2013     1     1      557            600        -3      709            723
##  9  2013     1     1      557            600        -3      838            846
## 10  2013     1     1      558            600        -2      753            745
## # … with 336,766 more rows, and 20 more variables: arr_delay <dbl>, carrier <chr>,
## #   flight <int>, tailnum <chr>, origin <chr>, dest <chr>, air_time <dbl>,
## #   distance <dbl>, hour <dbl>, minute <dbl>, time_hour <dttm>, temp <dbl>,
## #   dewp <dbl>, humid <dbl>, wind_dir <dbl>, wind_speed <dbl>, wind_gust <dbl>,
## #   precip <dbl>, pressure <dbl>, visib <dbl>
```
---
## defining the variables to join by

Instead, we can request that only some on the common variables be used by using a character vector, `by = "x"`:

For example, `flights` and `planes` have `year` variables, but they mean different things, so we only want to join by `tailnum`: 

(note the changes to the `year` variables)

```r
flights %>% left_join(planes, by = "tailnum")
```

```
## # A tibble: 336,776 x 27
##    year.x month   day dep_time sched_dep_time dep_delay arr_time sched_arr_time
##     <int> <int> <int>    <int>          <int>     <dbl>    <int>          <int>
##  1   2013     1     1      517            515         2      830            819
##  2   2013     1     1      533            529         4      850            830
##  3   2013     1     1      542            540         2      923            850
##  4   2013     1     1      544            545        -1     1004           1022
##  5   2013     1     1      554            600        -6      812            837
##  6   2013     1     1      554            558        -4      740            728
##  7   2013     1     1      555            600        -5      913            854
##  8   2013     1     1      557            600        -3      709            723
##  9   2013     1     1      557            600        -3      838            846
## 10   2013     1     1      558            600        -2      753            745
## # … with 336,766 more rows, and 19 more variables: arr_delay <dbl>, carrier <chr>,
## #   flight <int>, tailnum <chr>, origin <chr>, dest <chr>, air_time <dbl>,
## #   distance <dbl>, hour <dbl>, minute <dbl>, time_hour <dttm>, year.y <int>,
## #   type <chr>, manufacturer <chr>, model <chr>, engines <int>, seats <int>,
## #   speed <int>, engine <chr>
```

---
## defining the variables to join by

We can use a named character vector, `by = c("a" = "b")`, when the key is not named the same in the two table. This will match variable `a` in table `x` to variable `b` in table `y`. The variables from `x` will be used in the output.

We want to combine `flights` with `airports` which contains the location (`lat` and `lon`) of each airport, but each flight has an `origin` and `destination` airport, so we need to specify which one we want to join to:

```r
flights %>% left_join(airports, by = c("dest" = "faa"))
```

```
## # A tibble: 336,776 x 26
##     year month   day dep_time sched_dep_time dep_delay arr_time sched_arr_time
##    <int> <int> <int>    <int>          <int>     <dbl>    <int>          <int>
##  1  2013     1     1      517            515         2      830            819
##  2  2013     1     1      533            529         4      850            830
##  3  2013     1     1      542            540         2      923            850
##  4  2013     1     1      544            545        -1     1004           1022
##  5  2013     1     1      554            600        -6      812            837
##  6  2013     1     1      554            558        -4      740            728
##  7  2013     1     1      555            600        -5      913            854
##  8  2013     1     1      557            600        -3      709            723
##  9  2013     1     1      557            600        -3      838            846
## 10  2013     1     1      558            600        -2      753            745
## # … with 336,766 more rows, and 18 more variables: arr_delay <dbl>, carrier <chr>,
## #   flight <int>, tailnum <chr>, origin <chr>, dest <chr>, air_time <dbl>,
## #   distance <dbl>, hour <dbl>, minute <dbl>, time_hour <dttm>, name <chr>,
## #   lat <dbl>, lon <dbl>, alt <dbl>, tz <dbl>, dst <chr>, tzone <chr>
```
…
---
## Add'l filtering join examples

Recall that anti-joins are useful for diagnosing join mismatches. 

For example, when connecting `flights` and `planes`, you might be interested to know that there are many `flights` that don’t have a match in `planes`:

```r
flights %>%
  anti_join(planes, by = "tailnum") %>%
  count(tailnum, sort = TRUE)
```

```
## # A tibble: 722 x 2
##    tailnum     n
##    <chr>   <int>
##  1 <NA>     2512
##  2 N725MQ    575
##  3 N722MQ    513
##  4 N723MQ    507
##  5 N713MQ    483
##  6 N735MQ    396
##  7 N0EGMQ    371
##  8 N534MQ    364
##  9 N542MQ    363
## 10 N531MQ    349
## # … with 712 more rows
```
…
